混合变量网络分析
…
2.5 差异性分析

2.5.1 中心性指标

一般会检验强度中心性（Strength），下面的代码检验了各节点的Strength是否有显著差异。

#  节点差异性检验  输出数值
library(tidyverse)
res2 = summary(boot_results2) %>% 
  ungroup %>% 
  filter(type == "edge") %>% 
  arrange(-sample)
res2

# A tibble: 21 × 17
   type  id        node1 node2 sample   mean     sd CIlower CIupper   q2.5 q97.5
   <chr> <chr>     <chr> <chr>  <dbl>  <dbl>  <dbl>   <dbl>   <dbl>  <dbl> <dbl>
 1 edge  IQ--Type… IQ    Type… 0.494  0.495  0.0325  0.429    0.559 0.431  0.553
 2 edge  Integrat… Inte… No o… 0.315  0.325  0.0395  0.236    0.394 0.232  0.445
 3 edge  Integrat… Inte… Sati… 0.314  0.313  0.0271  0.260    0.368 0.251  0.366
 4 edge  Type of … Type… Work… 0.306  0.319  0.0326  0.240    0.371 0.257  0.395
 5 edge  Gender--… Gend… Type… 0.300  0.322  0.0494  0.202    0.399 0.206  0.434
 6 edge  IQ--Inte… IQ    Inte… 0.207  0.203  0.0301  0.147    0.267 0.119  0.264
 7 edge  Gender--… Gend… No o… 0.152  0.156  0.0357  0.0803   0.223 0.0878 0.237
 8 edge  Integrat… Inte… Work… 0.148  0.202  0.0425  0.0625   0.233 0.128  0.316
 9 edge  Integrat… Inte… Type… 0.0825 0.109  0.0280  0.0265   0.139 0.0555 0.166
10 edge  Type of … Type… Sati… 0.0605 0.0600 0.0405 -0.0206   0.142 0      0.125
# ℹ 11 more rows
# ℹ 6 more variables: q2.5_non0 <dbl>, mean_non0 <dbl>, q97.5_non0 <dbl>,
#   var_non0 <dbl>, sd_non0 <dbl>, prop0 <dbl>
…
